{
  "name": "compute",
  "timeout": 55,
  "params": {
    "openstack_version": "2013.2"
  },
  "steps": [
    { "name": "ipf.sysinfo.ResourceNameStep" },
    { "name": "ipf.sysinfo.PlatformStep" },
    { "name": "glue2.location.LocationStep",
      "params": {
        "location": {
          "Name": "Name of Center",
          "Place": "City",
          "Country": "US",
          "Latitude": 38.000,
          "Longitude": -90.000
        }
      }
    },
    { "name": "glue2.openstack.ComputingActivitiesStep" },
    { "name": "glue2.openstack.ComputingSharesStep" },
    { "name": "glue2.openstack.ComputingServiceStep" },
    { "name": "glue2.openstack.ExecutionEnvironmentsStep" },
    { "name": "glue2.openstack.ComputingManagerStep" },
    {
      "name": "ipf.publish.FileStep",
      "description": "Publish JSON version of compute resource description to a file for debugging",
      "params": {
        "publish": ["ipf.glue2.compute.PublicOgfJson"],
        "path": "compute.json"
      }
    },
    {
      "name": "ipf.publish.FileStep",
      "description": "Publish a description of current jobs in JSON to a file for debugging",
      "params": {
        "publish": ["ipf.glue2.compute.PrivateOgfJson"],
        "path": "activities.json"
      }
    }
  ]
}
